virtual_prototype/modules/ramDma/verilog/ramDmaCi.vcd
$date
	Tue Apr 30 01:38:20 2024
$end
$version
	Icarus Verilog
$end
$timescale
	1ps
$end
$scope module ramDmaCi_tb $end
$scope module UUT $end
$var wire 8 ! ciN [7:0] $end
$var wire 1 " clock $end
$var wire 1 # cpuEnable $end
$var wire 32 $ dataInA [31:0] $end
$var wire 32 % in_busAdressData [31:0] $end
$var wire 1 & in_busBusy $end
$var wire 1 ' in_busDataValid $end
$var wire 1 ( in_busEndTransaction $end
$var wire 1 ) in_busError $end
$var wire 1 * in_busGranted $end
$var wire 1 + reset $end
$var wire 1 , start $end
$var wire 32 - valueA [31:0] $end
$var wire 32 . valueB [31:0] $end
$var wire 1 / writeEnableA $end
$var wire 32 0 result [31:0] $end
$var wire 1 1 readWriteIn $end
$var wire 32 2 outBusAddressData [31:0] $end
$var wire 3 3 mode [2:0] $end
$var wire 1 4 done $end
$var wire 4 5 dmaControl [3:0] $end
$var wire 32 6 dataOutB [31:0] $end
$var wire 32 7 dataOutA [31:0] $end
$var wire 9 8 addressB [8:0] $end
$var wire 9 9 addressA [8:0] $end
$var reg 32 : blockSize [31:0] $end
$var reg 8 ; burstCount [7:0] $end
$var reg 9 < burstNumber [8:0] $end
$var reg 32 = burstSize [31:0] $end
$var reg 32 > busStartAddress [31:0] $end
$var reg 1 ? bypassEnable $end
$var reg 32 @ ctrlReg [31:0] $end
$var reg 9 A currBurstSize [8:0] $end
$var reg 9 B currentMemAddress [8:0] $end
$var reg 32 C dataInB [31:0] $end
$var reg 1 D dmaDone $end
$var reg 1 E dmaEnable $end
$var reg 32 F memStartAdress [31:0] $end
$var reg 2 G readOrWrite [1:0] $end
$var reg 1 H readOutputReady $end
$var reg 32 I reg_outBusAddressNoData [31:0] $end
$var reg 1 J reg_outBusBeginTransaction $end
$var reg 8 K reg_outBusBurstSize [7:0] $end
$var reg 1 L reg_outBusBusy $end
$var reg 4 M reg_outBusByteEnable [3:0] $end
$var reg 1 N reg_outBusDataValid $end
$var reg 1 O reg_outBusEndTransaction $end
$var reg 1 P reg_outBusReadWrite $end
$var reg 1 Q reg_outBusRequest $end
$var reg 32 R resultDMA [31:0] $end
$var reg 32 S statReg [31:0] $end
$var reg 3 T state [2:0] $end
$var reg 1 U writeEnableB $end
$upscope $end
$upscope $end
$enddefinitions $end
#0
$dumpvars
0U
b0 T
b0 S
bx R
0Q
0P
0O
0N
b0 M
0L
b0 K
0J
b0 I
0H
b0 G
b0 F
0E
0D
b0 C
b0 B
b0 A
b0 @
0?
b0 >
b0 =
b1 <
b0 ;
b0 :
b0 9
b0 8
bx 7
bx 6
b0 5
04
b0 3
b0 2
01
b0 0
0/
b0 .
b0 -
0,
1+
x*
x)
x(
x'
x&
bx %
b0 $
0#
0"
b0 !
$end
#3
1"
#6
0"
#9
1"
#12
0+
0"
#15
b0 R
1"
#18
0"
#21
1"
#24
1#
b1 5
11
b101001010 9
1,
b1101 !
b1101001010 -
b10010001101000101011001111000 $
b10010001101000101011001111000 .
0"
#27
bx 0
14
1/
1?
1"
#30
0#
0,
0"
#33
1H
04
b0 0
0/
0?
1"
#36
0"
#39
b10010001101000101011001111000 7
0H
1"
#42
1#
b110110111 9
1,
b1110110111 -
b10000111011001010100001100100001 $
b10000111011001010100001100100001 .
0"
#45
bx 7
bx 0
14
1/
1?
1"
#48
0#
0,
0"
#51
1H
04
b0 0
0/
0?
1"
#54
0"
#57
b10000111011001010100001100100001 7
0H
1"
#60
0"
#63
1"
#66
b1 !
0"
#69
1"
#72
0"
#75
1"
#78
b0 5
01
1#
1,
b110110111 -
b1101 !
0"
#81
1?
1"
#84
0"
#87
b10000111011001010100001100100001 0
14
1H
1"
#90
0#
0,
0"
#93
0H
04
b0 0
0?
1"
#96
0"
#99
1"
#102
1#
b101001010 9
1,
b101001010 -
0"
#105
b10010001101000101011001111000 7
1?
1"
#108
0"
#111
b10010001101000101011001111000 0
14
1H
1"
#114
0#
0,
0"
#117
0H
04
b0 0
0?
1"
#120
0"
#123
1"
#126
0"
#129
1"
#132
0"
#135
1"
#138
0"
#141
1"
#144
0"
#147
1"
#150
0"
#153
1"
#156
1#
11
b11 5
b1 3
b0 9
1,
b11000000000 -
b10001000100010001000100000000 $
b10001000100010001000100000000 .
0"
#159
b10001000100010001000100000000 0
14
bx 7
1D
b10001000100010001000100000000 R
b10001000100010001000100000000 >
1E
1"
#162
0#
0,
0"
#165
b10001000100010001000100000000 R
1D
04
b0 0
0E
1"
#168
0"
#171
b0 R
0D
1"
#174
1#
b10 5
01
1,
b10000000000 -
0"
#177
1E
1"
#180
0"
#183
b10001000100010001000100000000 0
14
1D
b10001000100010001000100000000 R
1"
#186
0#
0,
0"
#189
b10001000100010001000100000000 R
1D
04
b0 0
0E
1"
#192
0"
#195
b0 R
0D
1"
#198
1#
11
b101 5
b10 3
1,
b101000000000 -
b10000 $
b10000 .
0"
#201
1E
1"
#204
0#
0,
0"
#207
b10000 0
14
1D
b10000 R
b10000 F
1"
#210
0"
#213
b10000 R
1D
04
b0 0
0E
1"
#216
1#
b100 5
01
1,
b100000000000 -
0"
#219
b10000 R
1D
b10000 0
14
1E
1"
#222
0#
0,
0"
#225
b10000 R
1D
04
b0 0
0E
1"
#228
0"
#231
b0 R
0D
1"
#234
1#
11
b111 5
b11 3
1,
b111000000000 -
b101 $
b101 .
0"
#237
1E
1"
#240
0#
0,
0"
#243
b101 0
14
1D
b101 R
b101 :
1"
#246
0"
#249
b101 R
1D
04
b0 0
0E
1"
#252
1#
b110 5
01
1,
b110000000000 -
0"
#255
b101 R
1D
b101 0
14
1E
1"
#258
0#
0,
0"
#261
b101 R
1D
04
b0 0
0E
1"
#264
0"
#267
b0 R
0D
1"
#270
1#
11
b1001 5
b100 3
1,
b1001000000000 -
b100 $
b100 .
0"
#273
1E
1"
#276
0#
0,
0"
#279
b100 0
14
1D
b100 R
b100 =
1"
#282
0"
#285
b100 R
1D
04
b0 0
0E
1"
#288
1#
b1000 5
01
1,
b1000000000000 -
0"
#291
b100 R
1D
b100 0
14
1E
1"
#294
0#
0,
0"
#297
b100 R
1D
04
b0 0
0E
1"
#300
0"
#303
b0 R
0D
1"
#306
1#
11
b1011 5
b101 3
1,
b1011000000000 -
b1 $
b1 .
b0 %
0'
0(
0&
0)
0*
0"
#309
1E
1"
#312
0#
0,
0"
#315
b1 0
14
1D
b1 R
b1 @
1"
#318
0"
#321
b1 R
1D
b10000 8
b10000 B
b1 S
b1 G
b1 T
04
b0 0
0E
1"
#324
1#
b1010 5
01
1,
b1010000000000 -
0"
#327
b100 A
1Q
b1 R
1D
b0 @
b1 0
14
1E
1"
#330
0#
1*
0,
0"
#333
b10001000100010001000100000000 2
b1 R
1D
b11 T
b1111 M
1P
b10001000100010001000100000000 I
b100 K
1J
0Q
04
b0 0
0E
1"
#336
b10010 %
1'
0*
0"
#339
b0 2
b10001 8
b1 ;
b10010 C
1U
0P
b0 K
0J
b0 I
b0 M
b0 R
0D
1"
#342
b110100 %
0"
#345
b10010 8
b10 ;
b110100 C
1"
#348
b1010110 %
0"
#351
b10011 8
b11 ;
b1010110 C
1"
#354
b11101110 %
0'
0"
#357
0U
b11101110 C
1"
#360
b1010110 6
b1111000 %
1'
0"
#363
b10100 8
b100 ;
b1111000 C
1U
1"
#366
bx 6
b10010000 %
0"
#369
b10101 8
b101 ;
b10010000 C
1"
#372
0'
1(
b0 %
0"
#375
b0 S
b10000 8
b0 ;
b0 T
0U
b0 C
1"
#378
0(
0"
#381
1"
#384
1#
1,
0"
#387
14
1D
1E
1"
#390
0#
0,
0"
#393
1D
04
0E
1"
#396
0"
#399
0D
1"
#402
1#
b0 5
b0 3
b10000 9
1,
b10000 -
0"
#405
1?
1"
#408
0"
#411
bx 0
14
1H
1"
#414
0#
0,
0"
#417
0H
04
b0 0
0?
1"
#420
1#
b10001 9
1,
b10001 -
0"
#423
b10010 7
1?
1"
#426
0"
#429
b10010 0
14
1H
1"
#432
0#
0,
0"
#435
0H
04
b0 0
0?
1"
#438
1#
b10010 9
1,
b10010 -
0"
#441
b110100 7
1?
1"
#444
0"
#447
b110100 0
14
1H
1"
#450
0#
0,
0"
#453
0H
04
b0 0
0?
1"
#456
1#
b10011 9
1,
b10011 -
0"
#459
b1010110 7
1?
1"
#462
0"
#465
b1010110 0
14
1H
1"
#468
0#
0,
0"
#471
0H
04
b0 0
0?
1"
#474
1#
b10100 9
1,
b10100 -
0"
#477
b1111000 7
1?
1"
#480
0"
#483
b1111000 0
14
1H
1"
#486
0#
0,
0"
#489
0H
04
b0 0
0?
1"
#492
1#
b10101 9
1,
b10101 -
0"
#495
b10010000 7
1?
1"
#498
0"
#501
b10010000 0
14
1H
1"
#504
0#
0,
0"
#507
0H
04
b0 0
0?
1"
#510
0"
#513
1"
#516
0"
#519
1"
#522
0"
#525
1"
#528
0"
#531
1"
#534
0"
#537
1"
#540
1#
11
b101 5
b10 3
b0 9
1,
b101000000000 -
b100000 $
b100000 .
0"
#543
b100000 0
14
bx 7
1D
b100000 R
b100000 F
1E
1"
#546
0#
0,
0"
#549
b100000 R
1D
04
b0 0
0E
1"
#552
0"
#555
b0 R
0D
1"
#558
1#
b111 5
b11 3
1,
b111000000000 -
b11 $
b11 .
0"
#561
1E
1"
#564
0#
0,
0"
#567
b11 0
14
1D
b11 R
b11 :
1"
#570
0"
#573
b11 R
1D
04
b0 0
0E
1"
#576
1#
b1011 5
b101 3
1,
b1011000000000 -
b1 $
b1 .
0"
#579
b1 @
b1 R
1D
b1 0
14
1E
1"
#582
0#
0,
0"
#585
b1 R
1D
b100000 8
b100000 B
b1 S
b1 T
04
b0 0
0E
1"
#588
0"
#591
b10 A
1Q
b0 R
0D
b0 @
1"
#594
1#
b1010 5
01
1,
b1010000000000 -
0"
#597
1E
1"
#600
0"
#603
b1 0
14
1D
b1 R
1"
#606
0#
1*
0,
0"
#609
b10001000100010001000100000000 2
b1 R
1D
b11 T
b1111 M
1P
b10001000100010001000100000000 I
b10 K
1J
0Q
04
b0 0
0E
1"
#612
b1100101 %
1'
0*
0"
#615
b0 2
b100001 8
b1 ;
b1100101 C
1U
0P
b0 K
0J
b0 I
b0 M
b0 R
0D
1"
#618
b1000011 %
0"
#621
b100010 8
b10 ;
b1000011 C
1"
#624
b100001 %
0"
#627
b100011 8
b11 ;
b100001 C
1"
#630
0'
1(
b0 %
0"
#633
b0 S
b100000 8
b0 ;
b0 T
0U
b0 C
1"
#636
0(
0"
#639
1"
#642
1#
1,
0"
#645
1E
1"
#648
0"
#651
14
1D
1"
#654
0#
0,
0"
#657
1D
04
0E
1"
#660
0"
#663
0D
1"
#666
1#
b0 5
b0 3
b100000 9
1,
b100000 -
0"
#669
1?
1"
#672
0"
#675
bx 0
14
1H
1"
#678
0#
0,
0"
#681
0H
04
b0 0
0?
1"
#684
1#
b100001 9
1,
b100001 -
0"
#687
b1100101 7
1?
1"
#690
0"
#693
b1100101 0
14
1H
1"
#696
0#
0,
0"
#699
0H
04
b0 0
0?
1"
#702
1#
b100010 9
1,
b100010 -
0"
#705
b1000011 7
1?
1"
#708
0"
#711
b1000011 0
14
1H
1"
#714
0#
0,
0"
#717
0H
04
b0 0
0?
1"
#720
1#
b100011 9
1,
b100011 -
0"
#723
b100001 7
1?
1"
#726
0"
#729
b100001 0
14
1H
1"
#732
0#
0,
0"
#735
0H
04
b0 0
0?
1"
#738
0"
#741
1"
#744
0"
#747
1"
#750
0"
#753
1"
#756
0"
#759
1"
#762
0"
#765
1"
#768
1#
11
b101 5
b10 3
b0 9
1,
b101000000000 -
b110000 $
b110000 .
0"
#771
b110000 0
14
bx 7
1D
b110000 R
b110000 F
1E
1"
#774
0#
0,
0"
#777
b110000 R
1D
04
b0 0
0E
1"
#780
0"
#783
b0 R
0D
1"
#786
1#
b111 5
b11 3
1,
b111000000000 -
b111 $
b111 .
0"
#789
1E
1"
#792
0#
0,
0"
#795
b111 0
14
1D
b111 R
b111 :
1"
#798
0"
#801
b111 R
1D
04
b0 0
0E
1"
#804
1#
b1011 5
b101 3
1,
b1011000000000 -
b1 $
b1 .
0"
#807
b1 @
b1 R
1D
b1 0
14
1E
1"
#810
0#
0,
0"
#813
b1 R
1D
b110000 8
b110000 B
b1 S
b1 T
04
b0 0
0E
1"
#816
0"
#819
b100 A
1Q
b0 R
0D
b0 @
1"
#822
1#
b1010 5
01
1,
b1010000000000 -
0"
#825
1E
1"
#828
0"
#831
b1 0
14
1D
b1 R
1"
#834
0#
1*
0,
0"
#837
b10001000100010001000100000000 2
b1 R
1D
b11 T
b1111 M
1P
b10001000100010001000100000000 I
b100 K
1J
0Q
04
b0 0
0E
1"
#840
b10001 %
1'
0*
0"
#843
b0 2
b110001 8
b1 ;
b10001 C
1U
0P
b0 K
0J
b0 I
b0 M
b0 R
0D
1"
#846
b100010 %
0"
#849
b110010 8
b10 ;
b100010 C
1"
#852
b110011 %
0"
#855
b110011 8
b11 ;
b110011 C
1"
#858
b1000100 %
0"
#861
b110100 8
b100 ;
b1000100 C
1"
#864
b1010101 %
0"
#867
b110101 8
b101 ;
b1010101 C
1"
#870
1(
0'
b0 %
0"
#873
b10 <
b110000 8
b0 ;
b0 T
0U
b0 C
1"
#876
0(
0"
#879
b110101 8
b110101 B
b1 T
1"
#882
b1010101 6
1#
1,
0"
#885
b1 A
1Q
1E
1"
#888
0"
#891
b1 0
14
1D
b1 R
1"
#894
0#
1*
0,
0"
#897
b10001000100010001000100000000 2
b1 R
1D
b11 T
b1111 M
1P
b10001000100010001000100000000 I
b1 K
1J
0Q
04
b0 0
0E
1"
#900
b1100110 %
1'
0*
0"
#903
b0 2
b110110 8
b1 ;
b1100110 C
1U
0P
b0 K
0J
b0 I
b0 M
b0 R
0D
1"
#906
bx 6
b1110111 %
0"
#909
b110111 8
b10 ;
b1110111 C
1"
#912
1(
0'
b0 %
0"
#915
b0 S
b1 <
b110101 8
b0 ;
b0 T
0U
b0 C
1"
#918
b1010101 6
0(
0"
#921
1"
#924
1#
1,
0"
#927
14
1D
1E
1"
#930
0#
0,
0"
#933
1D
04
0E
1"
#936
0"
#939
0D
1"
#942
1#
b0 5
b0 3
b110000 9
1,
b110000 -
0"
#945
1?
1"
#948
0"
#951
bx 0
14
1H
1"
#954
0#
0,
0"
#957
0H
04
b0 0
0?
1"
#960
1#
b110001 9
1,
b110001 -
0"
#963
b10001 7
1?
1"
#966
0"
#969
b10001 0
14
1H
1"
#972
0#
0,
0"
#975
0H
04
b0 0
0?
1"
#978
1#
b110010 9
1,
b110010 -
0"
#981
b100010 7
1?
1"
#984
0"
#987
b100010 0
14
1H
1"
#990
0#
0,
0"
#993
0H
04
b0 0
0?
1"
#996
1#
b110011 9
1,
b110011 -
0"
#999
b110011 7
1?
1"
#1002
0"
#1005
b110011 0
14
1H
1"
#1008
0#
0,
0"
#1011
0H
04
b0 0
0?
1"
#1014
1#
b110100 9
1,
b110100 -
0"
#1017
b1000100 7
1?
1"
#1020
0"
#1023
b1000100 0
14
1H
1"
#1026
0#
0,
0"
#1029
0H
04
b0 0
0?
1"
#1032
1#
b110101 9
1,
b110101 -
0"
#1035
b1010101 7
1?
1"
#1038
0"
#1041
b1010101 0
14
1H
1"
#1044
0#
0,
0"
#1047
0H
04
b0 0
0?
1"
#1050
1#
b110110 9
1,
b110110 -
0"
#1053
b1100110 7
1?
1"
#1056
0"
#1059
b1100110 0
14
1H
1"
#1062
0#
0,
0"
#1065
0H
04
b0 0
0?
1"
#1068
1#
b110111 9
1,
b110111 -
0"
#1071
b1110111 7
1?
1"
#1074
0"
#1077
b1110111 0
14
1H
1"
#1080
0#
0,
0"
#1083
0H
04
b0 0
0?
1"
#1086
0"
#1089
1"
#1092
0"
#1095
1"
#1098
0"
#1101
1"
#1104
0"
#1107
1"
#1110
0"
#1113
1"
#1116
1#
11
b1011 5
b101 3
b0 9
1,
b1011000000000 -
0"
#1119
b1 0
14
bx 7
1D
b1 R
b1 @
1E
1"
#1122
0#
0,
0"
#1125
b1 R
1D
b110000 8
b110000 B
b1 S
b1 T
04
b0 0
0E
1"
#1128
bx 6
0"
#1131
b100 A
1Q
b0 R
0D
b0 @
1"
#1134
1#
b1010 5
01
1,
b1010000000000 -
0"
#1137
1E
1"
#1140
0"
#1143
b1 0
14
1D
b1 R
1"
#1146
0#
1*
0,
0"
#1149
b10001000100010001000100000000 2
b1 R
1D
b11 T
b1111 M
1P
b10001000100010001000100000000 I
b100 K
1J
0Q
04
b0 0
0E
1"
#1152
b10010 %
1'
0*
0"
#1155
b0 2
b110001 8
b1 ;
b10010 C
1U
0P
b0 K
0J
b0 I
b0 M
b0 R
0D
1"
#1158
b10001 6
1)
b11001101 %
0"
#1161
1O
b100 T
0U
b110000 8
b0 ;
b11001101 C
1"
#1164
bx 6
1(
0)
0"
#1167
b0 C
b0 G
0O
b0 T
b10 S
1"
#1170
0(
0'
b0 %
0"
#1173
1"
#1176
1#
1,
0"
#1179
b10 0
14
1D
b10 R
1E
1"
#1182
0#
0,
0"
#1185
b10 R
1D
04
b0 0
0E
1"
#1188
0"
#1191
b0 R
0D
1"
#1194
1#
b0 5
b0 3
b110000 9
1,
b110000 -
0"
#1197
1?
1"
#1200
0"
#1203
bx 0
14
1H
1"
#1206
0#
0,
0"
#1209
0H
04
b0 0
0?
1"
#1212
1#
b110001 9
1,
b110001 -
0"
#1215
b10010 7
1?
1"
#1218
0"
#1221
b10010 0
14
1H
1"
#1224
0#
0,
0"
#1227
0H
04
b0 0
0?
1"
#1230
1#
b110010 9
1,
b110010 -
0"
#1233
b100010 7
1?
1"
#1236
0"
#1239
b100010 0
14
1H
1"
#1242
0#
0,
0"
#1245
0H
04
b0 0
0?
1"
#1248
1#
b110011 9
1,
b110011 -
0"
#1251
b110011 7
1?
1"
#1254
0"
#1257
b110011 0
14
1H
1"
#1260
0#
0,
0"
#1263
0H
04
b0 0
0?
1"
#1266
1#
b110100 9
1,
b110100 -
0"
#1269
b1000100 7
1?
1"
#1272
0"
#1275
b1000100 0
14
1H
1"
#1278
0#
0,
0"
#1281
0H
04
b0 0
0?
1"
#1284
1#
b110101 9
1,
b110101 -
0"
#1287
b1010101 7
1?
1"
#1290
0"
#1293
b1010101 0
14
1H
1"
#1296
0#
0,
0"
#1299
0H
04
b0 0
0?
1"
#1302
1#
b110110 9
1,
b110110 -
0"
#1305
b1100110 7
1?
1"
#1308
0"
#1311
b1100110 0
14
1H
1"
#1314
0#
0,
0"
#1317
0H
04
b0 0
0?
1"
#1320
1#
b110111 9
1,
b110111 -
0"
#1323
b1110111 7
1?
1"
#1326
0"
#1329
b1110111 0
14
1H
1"
#1332
0#
0,
0"
#1335
0H
04
b0 0
0?
1"
#1338
0"
#1341
1"
#1344
0"
#1347
1"
#1350
0"
#1353
1"
#1356
0"
#1359
1"
#1362
0"
#1365
1"
#1368
1#
11
b101 5
b10 3
b0 9
1,
b101000000000 -
b10000 $
b10000 .
0"
#1371
b10000 0
14
bx 7
1D
b10000 R
b10000 F
1E
1"
#1374
0#
0,
0"
#1377
b10000 R
1D
04
b0 0
0E
1"
#1380
0"
#1383
b0 R
0D
1"
#1386
1#
b111 5
b11 3
1,
b111000000000 -
b101 $
b101 .
0"
#1389
1E
1"
#1392
0#
0,
0"
#1395
b101 0
14
1D
b101 R
b101 :
1"
#1398
0"
#1401
b101 R
1D
04
b0 0
0E
1"
#1404
1#
b1011 5
b101 3
1,
b1011000000000 -
b10 $
b10 .
0"
#1407
b10 @
b10 R
1D
b10 0
14
1E
1"
#1410
0#
0,
0"
#1413
b10 R
1D
b10000 8
b10000 B
b1 S
b10 G
b1 T
04
b0 0
0E
1"
#1416
0"
#1419
1Q
b0 R
0D
b0 @
1"
#1422
1#
b1010 5
01
1,
b1010000000000 -
0"
#1425
1E
1"
#1428
0"
#1431
b1 0
14
1D
b1 R
1"
#1434
0#
1*
0,
0"
#1437
b10001000100010001000100000000 2
b1 R
1D
b11 T
b1111 M
b10001000100010001000100000000 I
b100 K
1J
0Q
04
b0 0
0E
1"
#1440
0*
0"
#1443
bx 2
1N
b10001 8
b1 ;
b0 K
0J
b0 I
b0 M
b0 R
0D
1"
#1446
b10010 2
b10010 6
0"
#1449
b10010 8
b10 ;
1"
#1452
b110100 2
b110100 6
0"
#1455
b10011 8
b11 ;
1"
#1458
b1010110 2
b1010110 6
0"
#1461
b10100 8
b100 ;
1"
#1464
b1111000 2
b1111000 6
1&
0"
#1467
1"
#1470
0&
0"
#1473
b10101 8
b101 ;
1"
#1476
b10010000 2
b10010000 6
0"
#1479
b10110 8
b110 ;
1"
#1482
bx 2
bx 6
0"
#1485
b0 2
b0 S
1O
0N
b101 T
b10000 8
b0 ;
1"
#1488
0"
#1491
0O
b0 T
1"
#1494
1#
1,
0"
#1497
1E
1"
#1500
0"
#1503
14
1D
1"
#1506
11
b101 5
b10 3
b101000000000 -
b100000 $
b100000 .
1,
0"
#1509
b100000 R
b100000 F
1D
04
0E
1"
#1512
0#
0,
0"
#1515
b0 R
0D
1"
#1518
0"
#1521
1"
#1524
1#
b111 5
b11 3
1,
b111000000000 -
b11 $
b11 .
0"
#1527
b11 0
14
1D
b11 R
b11 :
1E
1"
#1530
0#
0,
0"
#1533
b11 R
1D
04
b0 0
0E
1"
#1536
0"
#1539
b0 R
0D
1"
#1542
1#
b1011 5
b101 3
1,
b1011000000000 -
b10 $
b10 .
0"
#1545
1E
1"
#1548
0#
0,
0"
#1551
b10 0
14
1D
b10 R
b10 @
1"
#1554
0"
#1557
b10 R
1D
b100000 8
b100000 B
b1 S
b1 T
04
b0 0
0E
1"
#1560
1#
b1010 5
01
1,
b1010000000000 -
0"
#1563
b10 A
1Q
b1 R
1D
b0 @
b1 0
14
1E
1"
#1566
0#
1*
0,
0"
#1569
b10001000100010001000100000000 2
b1 R
1D
b11 T
b1111 M
b10001000100010001000100000000 I
b10 K
1J
0Q
04
b0 0
0E
1"
#1572
0*
0"
#1575
bx 2
1N
b100001 8
b1 ;
b0 K
0J
b0 I
b0 M
b0 R
0D
1"
#1578
b1100101 2
b1100101 6
0"
#1581
b100010 8
b10 ;
1"
#1584
b1000011 2
b1000011 6
0"
#1587
b100011 8
b11 ;
1"
#1590
b100001 2
b100001 6
0"
#1593
b100100 8
b100 ;
1"
#1596
bx 2
bx 6
0"
#1599
b0 2
b0 S
1O
0N
b101 T
b100000 8
b0 ;
1"
#1602
0"
#1605
0O
b0 T
1"
#1608
1#
1,
0"
#1611
14
1D
1E
1"
#1614
11
b101 5
b10 3
b101000000000 -
b110000 $
b110000 .
1,
0"
#1617
b110000 R
b110000 F
1D
04
0E
1"
#1620
0#
0,
0"
#1623
b0 R
0D
1"
#1626
0"
#1629
1"
#1632
1#
b111 5
b11 3
1,
b111000000000 -
b111 $
b111 .
0"
#1635
b111 0
14
1D
b111 R
b111 :
1E
1"
#1638
0#
0,
0"
#1641
b111 R
1D
04
b0 0
0E
1"
#1644
0"
#1647
b0 R
0D
1"
#1650
1#
b1011 5
b101 3
1,
b1011000000000 -
b10 $
b10 .
0"
#1653
1E
1"
#1656
0#
0,
0"
#1659
b10 0
14
1D
b10 R
b10 @
1"
#1662
0"
#1665
b10 R
1D
b110000 8
b110000 B
b1 S
b1 T
04
b0 0
0E
1"
#1668
1#
b1010 5
01
1,
b1010000000000 -
0"
#1671
b100 A
1Q
b1 R
1D
b0 @
b1 0
14
1E
1"
#1674
0#
1*
0,
0"
#1677
b10001000100010001000100000000 2
b1 R
1D
b11 T
b1111 M
b10001000100010001000100000000 I
b100 K
1J
0Q
04
b0 0
0E
1"
#1680
0*
0"
#1683
bx 2
1N
b110001 8
b1 ;
b0 K
0J
b0 I
b0 M
b0 R
0D
1"
#1686
b10010 2
b10010 6
0"
#1689
b110010 8
b10 ;
1"
#1692
b100010 2
b100010 6
0"
#1695
b110011 8
b11 ;
1"
#1698
b110011 2
b110011 6
0"
#1701
b110100 8
b100 ;
1"
#1704
b1000100 2
b1000100 6
0"
#1707
b110101 8
b101 ;
1"
#1710
b1010101 2
b1010101 6
0"
#1713
b110110 8
b110 ;
1"
#1716
b1100110 2
b1100110 6
0"
#1719
b0 2
b10 <
1O
0N
b101 T
b110000 8
b0 ;
1"
#1722
bx 6
0"
#1725
0O
b0 T
1"
#1728
1#
1,
0"
#1731
b1 0
14
b110101 8
b110101 B
b1 T
1D
b1 R
1E
1"
#1734
b1010101 6
0#
0,
0"
#1737
b1 R
1D
b1 A
1Q
04
b0 0
0E
1"
#1740
1*
0"
#1743
b10001000100010001000100000000 2
b11 T
b1111 M
b10001000100010001000100000000 I
b1 K
1J
0Q
b0 R
0D
1"
#1746
0*
0"
#1749
b1010101 2
1N
b110110 8
b1 ;
b0 K
0J
b0 I
b0 M
1"
#1752
b1100110 2
b1100110 6
0"
#1755
b110111 8
b10 ;
1"
#1758
b1110111 2
b1110111 6
0"
#1761
b111000 8
b11 ;
1"
#1764
bx 2
bx 6
0"
#1767
b0 2
b0 S
b1 <
1O
0N
b101 T
b110101 8
b0 ;
1"
#1770
b1010101 6
0"
#1773
0O
b0 T
1"
#1776
1#
1,
0"
#1779
14
1D
1E
1"
#1782
11
b111 5
b11 3
b111000000000 -
b101 $
b101 .
1,
0"
#1785
b101 R
b101 :
1D
04
0E
1"
#1788
0#
0,
0"
#1791
b0 R
0D
1"
#1794
0"
#1797
1"
#1800
1#
b1011 5
b101 3
1,
b1011000000000 -
b10 $
b10 .
0"
#1803
b10 0
14
1D
b10 R
b10 @
1E
1"
#1806
0#
0,
0"
#1809
b10 R
1D
b110000 8
b110000 B
b1 S
b1 T
04
b0 0
0E
1"
#1812
bx 6
0"
#1815
b100 A
1Q
b0 R
0D
b0 @
1"
#1818
1#
b1010 5
01
1,
b1010000000000 -
0"
#1821
1E
1"
#1824
0"
#1827
b1 0
14
1D
b1 R
1"
#1830
0#
1*
0,
0"
#1833
b10001000100010001000100000000 2
b1 R
1D
b11 T
b1111 M
b10001000100010001000100000000 I
b100 K
1J
0Q
04
b0 0
0E
1"
#1836
0*
0"
#1839
bx 2
1N
b110001 8
b1 ;
b0 K
0J
b0 I
b0 M
b0 R
0D
1"
#1842
b10010 2
b10010 6
0"
#1845
b110010 8
b10 ;
1"
#1848
b100010 2
b100010 6
1)
0"
#1851
b0 2
0N
1O
b100 T
b110000 8
b0 ;
1"
#1854
bx 6
0"
#1857
b0 G
0O
b0 T
b10 S
1"
#1860
1#
1,
0"
#1863
b10 0
14
1D
b10 R
1E
1"
#1866
0#
0,
0"
